QuartusWorkSpace/sj2_t3/simulation/modelsim/msim_transcript
# Reading D:/modelSim/modelsim_ase/tcl/vsim/pref.tcl
# do main_run_msim_rtl_verilog.do
# if {[file exists rtl_work]} {
# 	vdel -lib rtl_work -all
# }
# vlib rtl_work
# vmap work rtl_work
# Model Technology ModelSim - Intel FPGA Edition vmap 10.5b Lib Mapping Utility 2016.10 Oct  5 2016
# vmap work rtl_work 
# Copying D:/modelSim/modelsim_ase/win32aloem/../modelsim.ini to modelsim.ini
# Modifying modelsim.ini
# 
# vlog -vlog01compat -work work +incdir+C:/Users/lance/Desktop/QuartusWorkSpace/sj2_t3 {C:/Users/lance/Desktop/QuartusWorkSpace/sj2_t3/main.v}
# Model Technology ModelSim - Intel FPGA Edition vlog 10.5b Compiler 2016.10 Oct  5 2016
# Start time: 21:13:45 on Oct 16,2020
# vlog -reportprogress 300 -vlog01compat -work work "+incdir+C:/Users/lance/Desktop/QuartusWorkSpace/sj2_t3" C:/Users/lance/Desktop/QuartusWorkSpace/sj2_t3/main.v 
# -- Compiling module main
# 
# Top level modules:
# 	main
# End time: 21:13:45 on Oct 16,2020, Elapsed time: 0:00:00
# Errors: 0, Warnings: 0
# 
# vlog -vlog01compat -work work +incdir+C:/Users/lance/Desktop/QuartusWorkSpace/sj2_t3/simulation/modelsim {C:/Users/lance/Desktop/QuartusWorkSpace/sj2_t3/simulation/modelsim/main.vt}
# Model Technology ModelSim - Intel FPGA Edition vlog 10.5b Compiler 2016.10 Oct  5 2016
# Start time: 21:13:45 on Oct 16,2020
# vlog -reportprogress 300 -vlog01compat -work work "+incdir+C:/Users/lance/Desktop/QuartusWorkSpace/sj2_t3/simulation/modelsim" C:/Users/lance/Desktop/QuartusWorkSpace/sj2_t3/simulation/modelsim/main.vt 
# -- Compiling module main_vlg_tst
# 
# Top level modules:
# 	main_vlg_tst
# End time: 21:13:45 on Oct 16,2020, Elapsed time: 0:00:00
# Errors: 0, Warnings: 0
# 
# vsim -t 1ps -L altera_ver -L lpm_ver -L sgate_ver -L altera_mf_ver -L altera_lnsim_ver -L cycloneive_ver -L rtl_work -L work -voptargs="+acc"  main_vlg_tst
# vsim -t 1ps -L altera_ver -L lpm_ver -L sgate_ver -L altera_mf_ver -L altera_lnsim_ver -L cycloneive_ver -L rtl_work -L work -voptargs=""+acc"" main_vlg_tst 
# Start time: 21:13:45 on Oct 16,2020
# Loading work.main_vlg_tst
# Loading work.main
# 
# add wave *
# view structure
# .main_pane.structure.interior.cs.body.struct
# view signals
# .main_pane.objects.interior.cs.body.tree
# run -all
# 0  00000000 1111111
# 10  00000001 1000000
# 20  00000010 1111001
# 30  00000011 1111001
# 40  00000100 0100100
# 50  00000101 0100100
# 60  00000110 0100100
# 70  00000111 0100100
# 80  00001000 0110000
# 90  00001001 0110000
# 100  00001010 0110000
# 110  00001011 0110000
# 120  00001100 0110000
# 130  00001101 0110000
# 140  00001110 0110000
# 150  00001111 0110000
# 160  00010000 0011001
# 170  00010001 0011001
# 180  00010010 0011001
# 190  00010011 0011001
# 200  00010100 0011001
# 210  00010101 0011001
# 220  00010110 0011001
# 230  00010111 0011001
# 240  00011000 0011001
# 250  00011001 0011001
# 260  00011010 0011001
# 270  00011011 0011001
# 280  00011100 0011001
# 290  00011101 0011001
# 300  00011110 0011001
# 310  00011111 0011001
# 320  00100000 0010010
# 330  00100001 0010010
# 340  00100010 0010010
# 350  00100011 0010010
# 360  00100100 0010010
# 370  00100101 0010010
# 380  00100110 0010010
# 390  00100111 0010010
# 400  00101000 0010010
# 410  00101001 0010010
# 420  00101010 0010010
# 430  00101011 0010010
# 440  00101100 0010010
# 450  00101101 0010010
# 460  00101110 0010010
# 470  00101111 0010010
# 480  00110000 0010010
# 490  00110001 0010010
# 500  00110010 0010010
# 510  00110011 0010010
# 520  00110100 0010010
# 530  00110101 0010010
# 540  00110110 0010010
# 550  00110111 0010010
# 560  00111000 0010010
# 570  00111001 0010010
# 580  00111010 0010010
# 590  00111011 0010010
# 600  00111100 0010010
# 610  00111101 0010010
# 620  00111110 0010010
# 630  00111111 0010010
# 640  01000000 0000010
# 650  01000001 0000010
# 660  01000010 0000010
# 670  01000011 0000010
# 680  01000100 0000010
# 690  01000101 0000010
# 700  01000110 0000010
# 710  01000111 0000010
# 720  01001000 0000010
# 730  01001001 0000010
# 740  01001010 0000010
# 750  01001011 0000010
# 760  01001100 0000010
# 770  01001101 0000010
# 780  01001110 0000010
# 790  01001111 0000010
# 800  01010000 0000010
# 810  01010001 0000010
# 820  01010010 0000010
# 830  01010011 0000010
# 840  01010100 0000010
# 850  01010101 0000010
# 860  01010110 0000010
# 870  01010111 0000010
# 880  01011000 0000010
# 890  01011001 0000010
# 900  01011010 0000010
# 910  01011011 0000010
# 920  01011100 0000010
# 930  01011101 0000010
# 940  01011110 0000010
# 950  01011111 0000010
# 960  01100000 0000010
# 970  01100001 0000010
# 980  01100010 0000010
# 990  01100011 0000010
# 1000  01100100 0000010
# 1010  01100101 0000010
# 1020  01100110 0000010
# 1030  01100111 0000010
# 1040  01101000 0000010
# 1050  01101001 0000010
# 1060  01101010 0000010
# 1070  01101011 0000010
# 1080  01101100 0000010
# 1090  01101101 0000010
# 1100  01101110 0000010
# 1110  01101111 0000010
# 1120  01110000 0000010
# 1130  01110001 0000010
# 1140  01110010 0000010
# 1150  01110011 0000010
# 1160  01110100 0000010
# 1170  01110101 0000010
# 1180  01110110 0000010
# 1190  01110111 0000010
# 1200  01111000 0000010
# 1210  01111001 0000010
# 1220  01111010 0000010
# 1230  01111011 0000010
# 1240  01111100 0000010
# 1250  01111101 0000010
# 1260  01111110 0000010
# 1270  01111111 0000010
# 1280  10000000 1111000
# 1290  10000001 1111000
# 1300  10000010 1111000
# 1310  10000011 1111000
# 1320  10000100 1111000
# 1330  10000101 1111000
# 1340  10000110 1111000
# 1350  10000111 1111000
# 1360  10001000 1111000
# 1370  10001001 1111000
# 1380  10001010 1111000
# 1390  10001011 1111000
# 1400  10001100 1111000
# 1410  10001101 1111000
# 1420  10001110 1111000
# 1430  10001111 1111000
# 1440  10010000 1111000
# 1450  10010001 1111000
# 1460  10010010 1111000
# 1470  10010011 1111000
# 1480  10010100 1111000
# 1490  10010101 1111000
# 1500  10010110 1111000
# 1510  10010111 1111000
# 1520  10011000 1111000
# 1530  10011001 1111000
# 1540  10011010 1111000
# 1550  10011011 1111000
# 1560  10011100 1111000
# 1570  10011101 1111000
# 1580  10011110 1111000
# 1590  10011111 1111000
# 1600  10100000 1111000
# 1610  10100001 1111000
# 1620  10100010 1111000
# 1630  10100011 1111000
# 1640  10100100 1111000
# 1650  10100101 1111000
# 1660  10100110 1111000
# 1670  10100111 1111000
# 1680  10101000 1111000
# 1690  10101001 1111000
# 1700  10101010 1111000
# 1710  10101011 1111000
# 1720  10101100 1111000
# 1730  10101101 1111000
# 1740  10101110 1111000
# 1750  10101111 1111000
# 1760  10110000 1111000
# 1770  10110001 1111000
# 1780  10110010 1111000
# 1790  10110011 1111000
# 1800  10110100 1111000
# 1810  10110101 1111000
# 1820  10110110 1111000
# 1830  10110111 1111000
# 1840  10111000 1111000
# 1850  10111001 1111000
# 1860  10111010 1111000
# 1870  10111011 1111000
# 1880  10111100 1111000
# 1890  10111101 1111000
# 1900  10111110 1111000
# 1910  10111111 1111000
# 1920  11000000 1111000
# 1930  11000001 1111000
# 1940  11000010 1111000
# 1950  11000011 1111000
# 1960  11000100 1111000
# 1970  11000101 1111000
# 1980  11000110 1111000
# 1990  11000111 1111000
# 2000  11001000 1111000
# 2010  11001001 1111000
# 2020  11001010 1111000
# 2030  11001011 1111000
# 2040  11001100 1111000
# 2050  11001101 1111000
# 2060  11001110 1111000
# 2070  11001111 1111000
# 2080  11010000 1111000
# 2090  11010001 1111000
# 2100  11010010 1111000
# 2110  11010011 1111000
# 2120  11010100 1111000
# 2130  11010101 1111000
# 2140  11010110 1111000
# 2150  11010111 1111000
# 2160  11011000 1111000
# 2170  11011001 1111000
# 2180  11011010 1111000
# 2190  11011011 1111000
# 2200  11011100 1111000
# 2210  11011101 1111000
# 2220  11011110 1111000
# 2230  11011111 1111000
# 2240  11100000 1111000
# 2250  11100001 1111000
# 2260  11100010 1111000
# 2270  11100011 1111000
# 2280  11100100 1111000
# 2290  11100101 1111000
# 2300  11100110 1111000
# 2310  11100111 1111000
# 2320  11101000 1111000
# 2330  11101001 1111000
# 2340  11101010 1111000
# 2350  11101011 1111000
# 2360  11101100 1111000
# 2370  11101101 1111000
# 2380  11101110 1111000
# 2390  11101111 1111000
# 2400  11110000 1111000
# 2410  11110001 1111000
# 2420  11110010 1111000
# 2430  11110011 1111000
# 2440  11110100 1111000
# 2450  11110101 1111000
# 2460  11110110 1111000
# 2470  11110111 1111000
# 2480  11111000 1111000
# 2490  11111001 1111000
# 2500  11111010 1111000
# 2510  11111011 1111000
# 2520  11111100 1111000
# 2530  11111101 1111000
# 2540  11111110 1111000
# 2550  11111111 1111000
# Running testbench
# End time: 21:28:18 on Oct 16,2020, Elapsed time: 0:14:33
# Errors: 0, Warnings: 0
